{
    "DB_URL": "https://82.150.238.41:8443/database/db-api/v1.0/",

    "SIA_WEB_APP_TST" : "/siawebapp/sia/v1.0/",

    "SIA_WEB_APP_sand" : "http://171.17.25.37:9002/siawebapp/sia/v1.0/  https://82.150.238.41:8443     http://localhost:8085/SIAWebApp/sia/v1.0/",

    "SIA_WEB_APP" : "http://171.17.25.37:9002/siawebapp/sia/v1.0/",

    "SYNC_SERV_CAT_temp" : "http://localhost:8081/ServiceCatalogue/Catalogue/v1.0/ http://171.17.25.37:9002/SyncServiceCat-API/Catalogue/v1.0/ ",

    "SERV_CAT" : "http://171.17.25.37:9002/SyncServiceCat-API/Catalogue/v1.0/",    

    "SERV_CAT_TST" : "https://82.150.238.41:8443/SyncServiceCat-API/Catalogue/v1.0/",

    "EMS_CAT" : "http://171.17.25.37:9002/EMSServiceCatalogue/",

    "EMS_CAT_TST" : "https://82.150.238.41:8443/EMSServiceCatalogue/",

    "ENVIRONMENTS": [
        "TEST"
    ]
}